<?xml version="1.0" encoding="UTF-8" standalone="no"?>
<svg
   id="entrance-alt1"
   width="15"
   height="15"
   viewBox="0 0 15 15"
   version="1.1"
   xmlns="http://www.w3.org/2000/svg"
   xmlns:svg="http://www.w3.org/2000/svg">
  <path
     id="path2"
     d="M 5.5315391,2.7440432 V 5.2427949 H 5.7883553 9.2241387 9.4809546 V 2.7440432 Z M 5.7883553,3.0008594 H 9.2241387 V 4.9845906 H 5.7883553 Z m 0.83847,0.362319 -0.1179967,0.1166084 v 0.00139 L 6.1159694,3.8740337 c -0.064971,0.064968 -0.064971,0.1698009 0,0.234605 0.064972,0.064969 0.1698002,0.064969 0.234605,0 L 6.4602418,3.9989719 v 0.4581044 c 0,0.091844 0.074653,0.1665834 0.1665835,0.1665834 0.091846,0 0.1665834,-0.074651 0.1665834,-0.1665834 V 3.9989719 l 0.1082792,0.1096674 c 0.032486,0.032486 0.075392,0.048587 0.1179966,0.048587 0.042519,0 0.085512,-0.016124 0.1179967,-0.048587 0.064972,-0.06497 0.064972,-0.1698027 0,-0.2346051 l -0.3928593,-0.3928593 -0.00139,-0.00139 z m 1.6200239,0.068021 c -0.091757,0 -0.1651952,0.074652 -0.1651952,0.1665834 V 4.0558879 L 7.9719865,3.9462204 c -0.064972,-0.064969 -0.1711043,-0.064969 -0.2359932,0 -0.064972,0.0648 -0.064972,0.1697177 0,0.234605 L 8.2468492,4.6916813 8.3648458,4.575073 8.7590933,4.1808254 c 0.064972,-0.0648 0.064972,-0.1697178 0,-0.234605 -0.064971,-0.064968 -0.1710981,-0.064882 -0.2359932,0 L 8.4134326,4.0558879 V 3.5977834 c 0,-0.091844 -0.074825,-0.1665834 -0.1665834,-0.166584 z M 4.5556378,5.8674828 c -0.2601328,0 -0.4719864,0.2118505 -0.4719864,0.4719863 v 5.4445019 c 0,0.260085 0.2118536,0.471986 0.4719864,0.471986 h 5.8887242 c 0.260084,0 0.471987,-0.211901 0.471987,-0.471986 V 6.3394692 c 0,-0.2601359 -0.211901,-0.4719864 -0.471987,-0.4719864 z m 0,0.4289524 H 7.2862181 V 11.827005 H 4.5556378 c -0.023691,0 -0.042955,-0.01934 -0.043034,-0.04303 V 6.3394692 c 0,-0.023695 0.019343,-0.043034 0.043034,-0.043034 z m 3.1581444,0 h 2.7305798 c 0.02357,0 0.04303,0.019345 0.04303,0.043034 v 5.4445019 c 0,0.02357 -0.0194,0.04303 -0.04303,0.04303 H 7.7137822 Z"
     fill="currentColor" />
</svg>
