<?xml version="1.0" encoding="UTF-8" standalone="no"?>
<svg
   width="801.33331"
   height="794.66669"
   version="1.1"
   viewBox="0 0 600.99998 596.00002"
   id="svg301"
   xmlns="http://www.w3.org/2000/svg"
   xmlns:svg="http://www.w3.org/2000/svg">
  <path
     id="path213"
     d="m 248.74336,109.9209 c -18.33781,-0.1326 -34.15917,13.64707 -36.18736,32.26958 -2.15993,19.86786 12.19035,37.72387 32.05436,39.88428 19.86709,2.16301 37.72427,-12.18726 39.88766,-32.05436 2.15989,-19.86441 -12.19009,-37.72446 -32.05661,-39.88541 h -9.5e-4 c -1.24118,-0.1351 -2.47478,-0.20525 -3.69693,-0.21409 z m -20.76863,79.67731 c -4.92284,-0.0408 -12.97906,2.26613 -48.40942,23.37259 -8.61437,5.16814 -15.50742,12.49036 -19.81651,21.10778 l -17.22833,33.16986 c -4.30879,8.18513 -1.29236,18.09146 6.89246,21.96751 2.58409,1.29204 5.16826,1.72171 7.75219,1.72171 6.90786,-0.42068 12.50554,-3.86668 15.52238,-9.03782 l 7.6e-4,-7.8e-4 17.22833,-33.16985 c 1.7217,-3.44644 4.30889,-6.03016 7.75218,-8.18486 1.29202,-0.86236 2.15474,-1.29202 3.44679,-2.15438 l -10.33926,45.22967 c -3.87611,16.7995 6.03054,33.16923 22.4002,37.47525 l -29.72307,120.61173 h 38.76652 l 27.1394,-110.70404 18.52071,4.73807 c 0.42967,0 0.86273,0.86272 1.2924,1.29239 l 7.75105,56.42866 h 37.47525 c 0.42968,-1.29204 0.42968,-3.01673 0,-4.30877 l -8.1845,-57.29098 c -2.15439,-15.93721 -13.35309,-28.43073 -28.86109,-32.30676 l -18.9534,-5.16849 11.19897,-45.65898 c 0.86235,1.29204 1.72133,2.58405 2.5837,3.87609 6.03042,9.04741 15.93778,15.07754 26.70668,16.79902 l 33.16874,5.16848 c 9.04742,1.29204 17.22845,-4.73876 18.52072,-13.78602 1.29204,-9.04743 -4.73877,-17.22847 -13.78603,-18.52073 l -33.16873,-4.73919 c -1.72171,-0.42967 -3.44602,-1.29164 -4.73807,-3.01637 -27.5684,-40.49185 -33.59965,-42.64531 -41.78402,-43.0753 l -27.13825,-1.7217 c -0.64602,-0.0536 -1.28549,-0.10792 -1.98875,-0.11374 z m 226.81543,168.10959 -110.23078,0.005 c -3.01677,10e-5 -5.60005,2.58337 -5.60005,5.60004 v 42.64374 h -83.99734 c -3.01675,0 -5.60118,2.5845 -5.60118,5.60118 v 42.21331 h -84.42888 c -3.01675,0 -5.60004,2.58338 -5.60004,5.60005 v 21.10779 c 0,3.01675 2.58336,5.60116 5.60004,5.60116 H 275.6371 c 3.01675,0 5.60005,-2.58449 5.60005,-5.60116 V 438.2656 h 83.99845 c 3.01675,0 5.60005,-2.58337 5.60005,-5.60006 v -42.21331 h 83.99733 c 3.01676,0 5.60117,-2.5845 5.60117,-5.60117 -5.2e-4,-11.44533 0.005,-17.18176 0.005,-21.58328 0,-5.26389 -3.45366,-5.59817 -5.64849,-5.55836 z"
     fill="currentColor"/>
</svg>
