<?xml version="1.0" encoding="UTF-8" standalone="no"?>
<svg
   width="593pt"
   height="592pt"
   version="1.1"
   viewBox="0 0 593 592"
   id="svg301"
   xmlns="http://www.w3.org/2000/svg"
   xmlns:svg="http://www.w3.org/2000/svg">
  <path
     id="path349"
     style="stroke-width:1.0065"
     d="m 362.62693,134.81239 c -1.22777,0.004 -2.469,0.17597 -3.59608,0.62964 -1.69156,0.68089 -3.15778,1.92442 -4.62134,3.17182 -2.70227,3.0534 -3.36941,7.91163 -1.78121,11.85727 l 7.03559,17.48202 -143.81084,57.88731 -7.03557,-17.48203 c -1.58984,-3.94966 -5.43226,-6.98687 -9.5003,-7.31504 -4.06407,-0.32978 -8.5769,1.48529 -11.05253,5.10117 l -39.6039,61.16182 c -1.91328,3.38953 -2.46862,6.89084 -0.87882,10.84041 1.36182,3.38317 4.41552,6.08637 8.14502,7.20897 l 70.93149,16.66718 c 2.14605,0.44813 4.85718,0.66493 7.11133,-0.24244 1.69159,-0.68089 3.15611,-1.92442 4.61966,-3.17181 2.70227,-3.0534 3.3711,-7.91332 1.78289,-11.85894 l -7.03725,-17.48035 143.81083,-57.889 7.03725,17.48204 c 1.58985,3.94967 5.43227,6.98853 9.50029,7.31672 4.06409,0.32976 8.57522,-1.48698 11.05086,-5.10286 l 39.60391,-61.16013 c 1.91327,-3.38951 2.47029,-6.89251 0.88051,-10.84209 -1.36183,-3.38317 -4.41552,-6.08469 -8.14505,-7.20728 L 366.14219,135.1996 c -1.07301,-0.22406 -2.28749,-0.39058 -3.51526,-0.38721 z m 100.06369,145.12063 c -0.94458,-0.0256 -1.9081,0.1365 -2.87887,0.50507 l 0.003,-0.005 -332.58363,134.77349 c -14.23509,5.8924 -12.079,41.98108 3.0203,41.98108 h 332.58426 c 6.90255,0 12.50879,-9.57485 12.50879,-21.35418 l -0.003,-134.77521 c -0.3763,-11.60173 -6.03809,-20.94571 -12.65023,-21.12524 z"
     fill="currentColor" />
</svg>
