<?xml version="1.0" encoding="UTF-8" standalone="no"?>
<svg
   viewBox="0 0 15 15"
   version="1.1"
   id="svg569"
   xmlns="http://www.w3.org/2000/svg"
   xmlns:svg="http://www.w3.org/2000/svg">
  <path
     d="m 11.52647,3.3726036 v 0.5680157 h 0.852024 l 0.800902,0.8009022 c 0.215847,0.215846 0.33513,0.5055341 0.33513,0.8065825 v 3.5046572 c 0,0.6248171 -0.511214,1.1360308 -1.136032,1.1360308 h -2.272063 c -0.6248171,0 -1.1360313,-0.5112137 -1.1360313,-1.1360308 V 5.548104 c 0,-0.3010484 0.1192834,-0.5907365 0.3351293,-0.8065825 l 0.800902,-0.8009022 h 0.852024 V 3.3726036 h -0.852024 c -0.1590442,0 -0.2840072,-0.1249634 -0.2840072,-0.2840079 0,-0.1590444 0.124963,-0.2840078 0.2840072,-0.2840078 h 2.272063 c 0.159045,0 0.284007,0.1249634 0.284007,0.2840078 0,0.1590445 -0.124962,0.2840079 -0.284007,0.2840079 z M 10.532443,10.4728 10.106431,11.324824 H 9.2544076 L 9.6804194,10.4728 Z m 2.272063,0 0.426012,0.852024 H 12.378494 L 11.952482,10.4728 Z M 11.810478,9.620777 h 0.568016 c 0.312409,0 0.568015,-0.2556072 0.568015,-0.5680158 V 8.4847454 c -0.624817,0 -1.136031,0.5112142 -1.136031,1.1360316 z m -1.136031,0 c 0,-0.6248174 -0.511214,-1.1360316 -1.1360315,-1.1360316 v 0.5680158 c 0,0.3124086 0.2556073,0.5680158 0.5680155,0.5680158 z M 9.5384155,5.9286745 v 1.7040473 c 0,0.1590444 0.1249635,0.2840078 0.2840083,0.2840078 h 2.8400772 c 0.159046,0 0.284008,-0.1249634 0.284008,-0.2840078 V 5.9286745 c 0,-0.1590444 -0.124962,-0.2840079 -0.284008,-0.2840079 H 9.8224238 c -0.1590448,0 -0.2840083,0.1249635 -0.2840083,0.2840079 z M 10.106431,4.792643 c 0,0.1590444 0.124964,0.2840079 0.284008,0.2840079 h 1.704047 c 0.159045,0 0.284008,-0.1249635 0.284008,-0.2840079 0,-0.1590445 -0.124963,-0.2840079 -0.284008,-0.2840079 h -1.704047 c -0.159044,0 -0.284008,0.1249634 -0.284008,0.2840079 z"
     fill="currentColor" />
  <path
     d="m 2.8047276,11.316414 c -0.5680157,0 -0.8520236,-0.284008 -1.1360315,-1.7040471 C 1.3278866,7.9083199 0.81667256,4.2162174 1.3846882,4.2162174 c 0.2840079,0 0.4260119,0.8520236 0.5680158,1.4200394 0.1704047,0.6816189 0.2840079,1.1360315 0.2840079,1.1360315 0,-2.8400787 0,-3.4080945 0.2840079,-3.4080945 0.5680158,0 0.5680158,2.272063 0.8520236,3.1240867 0.284008,-1.4200395 0,-3.6921025 0.5680158,-3.6921025 0,0 0,0 0,0 0,0 0,0 0,0 0.5680158,0 0.5680158,1.9880552 0.5680158,2.5560709 0,0.6248173 0,1.1360316 0,1.1360316 0,0 0,0 0,0 C 4.6053375,6.0906694 4.7359813,5.5226537 4.7927828,5.068241 4.9177463,4.1594158 4.9631875,3.3641938 5.3607986,3.3641938 c 0.5680158,0 0.2840079,1.7040472 0.2840079,3.6921024 0,0.4544126 0.2840079,1.4200395 0.2840079,1.4200395 0,0 1.5904441,-1.9880552 1.9880551,-1.1360316 0.284008,0.5680158 -0.5680158,1.3064361 -1.1360315,1.988055 -0.3408095,0.3976112 -0.5680158,0.8520229 -0.5680158,0.8520229 0,0 -0.5680157,1.136032 -1.4200394,1.136032 -0.8520236,0 -1.4200394,0 -1.9880552,0 z"
     fill="currentColor" />
</svg>
